 _______  _____  _     _  ______ _______ _______ _______        
 |       |     | |     | |_____/ |______ |______ |______        
 |_____  |_____| |_____| |    \_ ______| |______ ______|        
                                                                
 _______ _______                                                
 |______    |                                                   
 |______    |                                                   
                                                                
  ______ _______ _______ _______ _______ _______ _______ _______
 |_____/ |______ |       |______    |       |    |______ |______
 |    \_ |______ |_____  |______    |       |    |______ ______|
                                                                